your name - Lecture 9
…
Lecture 9

    Author

             Awesome Me 

    Published

      March 2, 2023

organdata

# A tibble: 238 × 21
   country  year       donors   pop pop_d…¹   gdp gdp_lag health healt…² pubhe…³
   <chr>    <date>      <dbl> <int>   <dbl> <int>   <int>  <dbl>   <dbl>   <dbl>
 1 Austral… NA          NA    17065   0.220 16774   16591   1300    1224     4.8
 2 Austral… 1991-01-01  12.1  17284   0.223 17171   16774   1379    1300     5.4
 3 Austral… 1992-01-01  12.4  17495   0.226 17914   17171   1455    1379     5.4
 4 Austral… 1993-01-01  12.5  17667   0.228 18883   17914   1540    1455     5.4
 5 Austral… 1994-01-01  10.2  17855   0.231 19849   18883   1626    1540     5.4
 6 Austral… 1995-01-01  10.2  18072   0.233 21079   19849   1737    1626     5.5
 7 Austral… 1996-01-01  10.6  18311   0.237 21923   21079   1846    1737     5.6
 8 Austral… 1997-01-01  10.3  18518   0.239 22961   21923   1948    1846     5.7
 9 Austral… 1998-01-01  10.5  18711   0.242 24148   22961   2077    1948     5.9
10 Austral… 1999-01-01   8.67 18926   0.244 25445   24148   2231    2077     6.1
# … with 228 more rows, 11 more variables: roads <dbl>, cerebvas <int>,
#   assault <int>, external <int>, txp_pop <dbl>, world <chr>, opt <chr>,
#   consent_law <chr>, consent_practice <chr>, consistent <chr>, ccode <chr>,
#   and abbreviated variable names ¹​pop_dens, ²​health_lag, ³​pubhealth
…
socviz::elections_historic %>% select(2:7)

# A tibble: 49 × 6
    year winner                 win_party ec_pct popular_pct popular_margin
   <int> <chr>                  <chr>      <dbl>       <dbl>          <dbl>
 1  1824 John Quincy Adams      D.-R.      0.322       0.309        -0.104 
 2  1828 Andrew Jackson         Dem.       0.682       0.559         0.122 
 3  1832 Andrew Jackson         Dem.       0.766       0.547         0.178 
 4  1836 Martin Van Buren       Dem.       0.578       0.508         0.142 
 5  1840 William Henry Harrison Whig       0.796       0.529         0.0605
 6  1844 James Polk             Dem.       0.618       0.495         0.0145
 7  1848 Zachary Taylor         Whig       0.562       0.473         0.0479
 8  1852 Franklin Pierce        Dem.       0.858       0.508         0.0695
 9  1856 James Buchanan         Dem.       0.588       0.453         0.122 
10  1860 Abraham Lincoln        Rep.       0.594       0.396         0.101 
# … with 39 more rows
…
